{
  "noodhulp": [
    {
      "nl": "Politie, ambulance of brandweer",
      "en": "Emergency telephone number",
      "de": "Notrufnummer",
      "phone": "112",
      "call": "",
      "url": ""
    },
    {
      "nl": "Huisartenpost Delft",
      "en": "General Practice Centre Delft",
      "de": "Zentrum für Allgemeinmedizin Delft",
      "phone": "015-2511930",
      "call": "+31152511930",
      "url": "https://hapschievliet.nl/locatie/huisartsenpost-delft/"
    },
    {
      "nl": "Spoedeisende hulp (SEH) Delft",
      "en": "Emergency department Delft",
      "de": "Notaufnahme Delft",
      "phone": "Alleen bereikbaar via 112 of huisartsenpost",
      "call": "",
      "url": "https://reinierdegraaf.nl/specialisme/spoedeisende-hulp"
    },
    {
      "nl": "Apotheek Delft (24 uur)",
      "en": "Pharmacy Delft (24 hours)",
      "de": "Apotheke Delft (24 Stunden)",
      "phone": "015-2125760",
      "call": "+31152125760",
      "url": "https://www.poliapotheekreinierdegraaf.nl"
    },
    {
      "nl": "Apotheek Pijnacker (ma-vr 08:30-18:00)",
      "en": "Pharmacy Pijnacker (Mon-Fri 08:30-18:00)",
      "de": "Apotheke Pijnacker (Mo-Fr 08:30-18:00)",
      "phone": "015-3694478",
      "call": "+31153694478",
      "url": "https://www.apotheekpijnackercentrum.nl"
    }
  ]
}
