<?xml version="1.0" encoding="UTF-8" standalone="no"?>
<svg
   xmlns:dc="http://purl.org/dc/elements/1.1/"
   xmlns:cc="http://creativecommons.org/ns#"
   xmlns:rdf="http://www.w3.org/1999/02/22-rdf-syntax-ns#"
   xmlns:svg="http://www.w3.org/2000/svg"
   xmlns="http://www.w3.org/2000/svg"
   width="93.014778mm"
   height="87.270226mm"
   viewBox="0 0 93.014778 87.270226"
   version="1.1"
   id="sn-logo">
  <g
     transform="translate(-57.81403,-71.936114)"
     id="layer1">
    <path
       id="path3752"
       style="fill:#ffffff;fill-opacity:1;fill-rule:nonzero;stroke:none;stroke-width:0.03527778"
       d="m 96.268578,72.103385 c -0.853369,0.252236 -3.659611,1.249891 -3.949171,3.510844 -0.01471,0.115711 -0.02342,0.238125 -0.02342,0.366184 0,0.06279 0.0083,0.130527 0.01284,0.196144 -0.362021,-0.01023 -0.696348,-0.02117 -0.921915,-0.02858 l -2.304767,-0.04727 -0.83111,0.146755 c -0.988589,0.160514 -3.656894,0.596195 -3.711328,3.338337 -0.0079,0.182033 -0.03941,0.905227 -0.03941,0.905227 0,1.628776 0.333198,3.407481 0.938459,5.008034 0.178012,0.478367 0.449898,0.845609 0.648476,1.11372 0.0025,0.0039 0.118816,0.17145 0.153812,0.221897 0.347662,1.367719 0.927805,2.491669 1.620273,3.483328 -1.870675,0.224367 -3.758178,0.529167 -5.618939,1.088319 l 0.37592,-0.0702 c -1.015753,0.0762 -1.988926,0.616302 -2.975434,1.651352 l -0.09109,0.0956 -0.07609,0.108303 c -0.330165,0.470606 -0.569137,0.930981 -0.726617,1.387475 -3.845031,1.138414 -7.010083,2.111728 -9.578058,2.951339 -2.264128,0.746478 -6.771288,2.664537 -6.961859,2.746027 l -0.123048,0.0522 c 0,0 -0.02646,0.0176 -0.03419,0.0226 -0.03267,0.0134 -0.06699,0.0279 -0.06699,0.0279 -3.447285,1.40335 -4.170892,3.77754 -4.170892,5.52203 0,2.74002 2.127003,3.50061 3.149367,3.86609 0.230548,0.0825 0.469357,0.16792 0.5923,0.23707 1.377739,0.75424 2.700655,0.49389 3.666526,0.30409 l 0.653873,-0.11395 c 0.47364,-0.0582 0.99494,-0.21237 1.514052,-0.37535 0.477626,1.00154 1.352409,1.92758 2.725067,2.19216 1.173692,0.22966 1.956259,0.0127 2.585897,-0.21414 0.03514,0.35313 0.106927,0.7045 0.25206,1.04634 0.242535,0.57221 0.647523,1.09749 1.150655,1.54411 -0.831638,0.65088 -2.011821,1.8221 -2.011821,3.2445 0,0.12735 0.0097,0.25682 0.02977,0.38805 -2.82e-4,-0.001 0.01408,0.0974 0.01408,0.0974 0.108162,0.75918 0.395499,2.77636 3.155986,3.90737 1.061896,0.43497 2.29041,0.55809 3.66776,0.3817 0.121003,0.41628 0.303177,0.80857 0.544618,1.16488 -0.759707,0.37458 -0.930733,0.50454 -1.047326,0.59866 l -0.0387,0.0321 c -0.506025,0.43173 -1.242872,1.10698 -1.798779,1.97418 -0.230681,0.34463 -0.926289,1.50453 -0.926289,2.82607 0,0.23841 0.02258,0.48218 0.07483,0.72775 0.176247,0.82722 0.650275,1.50495 1.370859,1.95929 1.0039,0.61986 2.099874,0.68449 2.945553,0.60374 0.13769,0.88992 0.790187,1.90567 2.806947,2.49686 l 0.128835,0.0382 c 0.648652,0.19748 1.523436,0.16372 3.367088,0.006 l 0.741115,-0.0568 c 0.223379,-0.008 0.597535,-0.0635 1.034909,-0.14178 7.06e-4,0.9059 0.267194,1.71164 0.77403,2.31136 l 0.03655,0.0419 c 1.142224,1.26792 2.863285,1.61146 3.550214,1.70078 0.765669,0.10651 1.742158,-0.21939 3.635517,-0.99053 l 0.46355,-0.18605 c 0.09207,-0.0362 0.322086,-0.10361 0.592314,-0.17872 0.07338,0.0987 0.125589,0.20172 0.216252,0.29489 0.408164,0.42086 1.138414,0.91337 2.299053,0.87312 1.059038,-0.028 2.845148,-0.42513 3.044818,-0.47032 l 0.1069,-0.024 0.10265,-0.037 c 2.20698,-0.79583 9.48302,-3.43214 10.45493,-3.95499 l 0.0367,-0.0201 c 0.80574,-0.40707 7.26157,-2.46698 10.01853,-3.34642 l 1.98226,-0.635 c 2.90477,-0.91408 5.57213,-2.9785 6.34048,-3.77927 l 0.0282,-0.0301 c 0.64382,-0.70238 1.06292,-1.6655 1.24707,-2.86275 0.0201,-0.12736 0.03,-0.25365 0.03,-0.37853 0,-0.62901 -0.24553,-1.2252 -0.57255,-1.78929 1.50989,-0.67416 2.98379,-1.3328 3.02612,-1.3515 0.54152,-0.20073 1.93287,-0.82303 2.51531,-2.1089 0.13582,-0.30092 0.1965,-0.59655 0.21519,-0.88477 1.61079,-0.4131 3.38773,-0.86889 3.38773,-0.86889 0.002,-3.5e-4 0.0557,-0.013 0.0557,-0.013 1.02129,-0.24201 3.73486,-0.88512 6.2618,-2.13748 2.36291,-1.14336 2.81623,-2.49838 2.81623,-3.64102 0,-0.15452 -0.008,-0.30551 -0.0212,-0.45156 l -0.008,-0.10407 -0.008,0.13194 c 0.0109,-0.085 0.0162,-0.1711 0.0162,-0.25717 0,-1.18498 -0.98072,-2.4504 -1.88066,-3.11115 -0.0145,-0.0512 -0.0243,-0.0868 -0.0243,-0.0868 -0.57044,-0.68686 -1.4224,-0.73167 -1.83162,-0.75354 l 0.0459,0.003 -0.50236,-0.0822 c -0.65017,-0.13688 -1.35714,-0.24201 -2.86773,-0.20849 -0.0356,-0.45473 -0.10654,-0.89182 -0.248,-1.29822 -0.89465,-2.68323 -3.2632,-4.599172 -6.02827,-4.861992 -1.73179,-0.217664 -3.0734,-0.1397 -4.51626,-0.01693 1.24001,-1.449564 2.51284,-3.089981 2.84727,-4.068234 0.29069,-0.8255 0.82515,-4.594225 0.85125,-4.944533 l 0.004,-0.05221 0.007,-0.484364 c 0,-1.039284 -0.10478,-1.745192 -0.19191,-2.314575 -0.006,-0.05715 -0.10972,-0.989542 -0.1196,-1.08197 -0.0825,-2.499078 -0.49988,-4.718403 -0.58384,-5.142089 l -0.83573,-4.149725 -2.49802,3.402541 c -0.32562,0.45085 -0.72673,0.990601 -0.89994,1.208617 -0.49777,0.382059 -2.79717,1.973086 -4.53743,3.06317 -0.38946,-1.568803 -1.31939,-2.948517 -2.79294,-4.003675 l -0.066,-0.04762 -0.0702,-0.04092 c -1.8535,-1.084086 -3.89114,-2.091619 -6.22865,-2.123016 -2.34244,-0.08043 -4.52331,0.396875 -6.48194,1.419225 -1.19062,0.643114 -2.07115,1.581503 -2.84797,2.409472 -0.48825,0.518936 -0.94015,1.000125 -1.42064,1.380067 l 0.0928,-0.06844 c -0.42439,0.2921 -0.81809,0.602544 -1.19838,0.917222 -0.29422,-1.544814 -0.63641,-3.276247 -1.39877,-4.961467 -0.92498,-1.979789 -2.16005,-3.688292 -3.89043,-5.394678 -0.840666,-0.863247 -2.382305,-1.526117 -3.228619,-1.844322 l -0.102306,-0.03634 -0.528461,-0.1778 -0.565503,0.166864" />
    <path
       id="path3754"
       style="fill:#ffffff;fill-opacity:1;fill-rule:nonzero;stroke:none;stroke-width:0.03527778"
       d="m 74.525648,117.17392 c -0.100613,-0.62865 0.730073,-1.53564 1.584466,-2.13959 0.881239,-0.6029 2.290304,-1.23226 3.147025,-1.53423 0.854392,-0.27764 1.458665,-0.47872 1.936538,-0.63042 2.768777,-0.95567 9.009628,-3.14431 9.261123,-3.2445 0.276296,-0.12735 14.44343,-4.7565 15.65205,-5.00979 1.1811,-0.25153 6.26462,-2.51425 6.7952,-2.96828 0.34996,-0.30197 10.6426,-1.48484 11.97716,-0.83008 1.30739,0.6537 -0.42757,5.13433 1.96356,4.47957 2.3622,-0.6537 9.73632,-1.81187 11.04442,0.30057 1.30845,2.11561 0.25329,3.17253 -0.67769,3.57399 -0.90699,0.37924 -18.04247,4.65596 -18.04247,4.65596 0,0 -24.410105,6.59271 -25.341085,6.743 -0.729545,0.12735 -5.761779,1.68733 -7.675175,2.31457 -0.527791,0.17639 0.07581,-0.0243 -0.929746,0.27799 -1.284746,0.37571 -1.057663,0.17639 -1.636854,0.0748 -1.282947,-0.25118 -2.264798,-1.13312 -2.366081,-2.33892 -0.100189,-1.18286 1.888314,-1.86231 1.738101,-1.86231 -0.151306,0 -3.74964,1.83762 -6.341428,0.78069 -1.938231,-0.78069 -1.988784,-1.98966 -2.089114,-2.64301" />
    <path
       id="path3762"
       style="fill:#00a650;fill-opacity:1;fill-rule:nonzero;stroke:none;stroke-width:0.03527778"
       d="m 120.43703,92.834725 v 0.0014 -0.0014" />
    <path
       id="path3766"
       style="fill:#231f20;fill-opacity:1;fill-rule:nonzero;stroke:none;stroke-width:0.03527778"
       d="m 82.95619,119.03624 c -0.148801,0.005 -3.758988,1.84538 -6.340052,0.78704 -1.935727,-0.7948 -1.996087,-1.99284 -2.095994,-2.6416 -0.06576,-0.43426 0.283175,-0.99095 0.781756,-1.49401 -0.807967,0.60748 -1.530315,1.45415 -1.436617,2.06481 0.09881,0.64735 0.159455,1.84679 2.095324,2.63984 1.983951,0.81315 4.575775,-0.0843 5.73539,-0.54787 0.548464,-0.52775 1.35696,-0.81139 1.260193,-0.80821" />
    <g
       id="g3936">
      <path
         d="m 83.514602,123.6795 c 0,0 13.035846,-4.04954 14.44484,-4.58047 1.408642,-0.5274 16.706848,-4.73075 17.765188,-4.95617 1.03081,-0.22684 11.80218,-3.5493 13.03267,-3.87633 1.23331,-0.32667 9.36343,-2.49131 9.36343,-2.49131 0,0 2.59221,-0.62724 5.20911,-0.75283 2.61691,-0.1016 2.69064,0.20073 3.64772,0.27622 0.95709,0.0501 0.37712,0.25154 0.68122,0.35278 0.27587,0.0751 1.45732,1.28235 1.38359,1.86196 -0.0769,0.57856 0.57644,1.55999 -1.81327,2.71639 -2.38972,1.18463 -4.98229,1.78753 -5.93937,2.01436 -0.95427,0.22543 -5.58694,1.43299 -5.58694,1.43299 0,0 1.13524,0.52916 0.78246,1.30986 -0.35278,0.77929 -1.58609,1.20721 -1.58609,1.20721 l -5.86282,2.61831 c 0,0 1.46015,0.42616 1.65982,0.72884 0.2025,0.30198 0.73025,1.05692 0.65335,1.53353 -0.0737,0.48048 -0.25153,1.33632 -0.80363,1.93922 -0.55527,0.5782 -2.96968,2.49093 -5.61128,3.32285 -2.6416,0.85411 -11.40037,3.59681 -12.32994,4.12598 -0.93274,0.50176 -10.2175,3.84888 -10.2175,3.84888 0,0 -1.78576,0.40361 -2.717451,0.42785 -1.458736,0.0504 -1.358547,-1.50951 -1.358547,-1.50951 0,0 -1.886656,0.45406 -2.366081,0.65515 -0.477309,0.17639 -2.6416,1.13206 -3.194474,1.05516 -0.579861,-0.0751 -1.762513,-0.35098 -2.465987,-1.13207 -0.680473,-0.80504 -0.226413,-2.41444 0.02438,-2.59221 0.226413,-0.17639 0.754204,-1.00475 0.754204,-1.00475 0,0 -3.32038,0.77929 -4.000853,0.80367 -0.653204,0.0247 -2.943508,0.30413 -3.523228,0.12735 -0.577391,-0.17776 -1.936573,-0.47875 -1.685078,-1.53529 0.251495,-1.08299 0.930875,-1.88694 1.66056,-2.18902 0.730074,-0.30371 -2.642411,0.92964 -2.642411,0.92964 0,0 -1.609831,0.57961 -2.792589,-0.15035 -1.15824,-0.73022 -0.427885,-2.39145 0.0248,-3.06945 0.452402,-0.70556 1.107264,-1.28418 1.459336,-1.58472 0.376625,-0.30374 3.950864,-1.86372 3.950864,-1.86372"
         style="fill:#1c63b7;fill-opacity:1;fill-rule:nonzero;stroke:none;stroke-width:0.03527778"
         id="path3756" />
      <path
         d="m 62.900525,101.89864 c 0,0 4.603327,-1.96144 6.818384,-2.692043 5.082752,-1.66123 11.348968,-3.472392 13.413,-4.077053 1.961903,-0.602897 8.026365,-2.440517 13.159952,-4.0005 4.078109,-1.233311 7.599189,-2.290586 7.978069,-2.39007 0.87983,-0.201083 18.49402,-5.738283 19.07399,-5.058833 0.57856,0.653344 2.39113,2.290233 2.29023,4.65702 -0.10124,2.389716 -4.47921,8.202083 -5.23416,8.603897 -0.7807,0.378531 -13.81478,2.945342 -13.81478,2.945342 0,0 6.74335,-2.667706 7.04427,0.100895 0.27905,2.767545 -5.23381,3.749325 -5.51004,3.899605 -0.27622,0.17639 -10.94634,3.52319 -18.947587,6.09 -5.311387,1.70992 -8.732344,3.01837 -9.060322,3.06917 -0.854392,0.0755 -2.339234,1.23331 -3.825028,0.65476 -1.005699,-0.40147 -2.288646,-1.53353 -1.710549,-2.94358 0.57919,-1.43581 1.812537,-1.71168 1.812537,-1.71168 0,0 -0.805886,0.27587 -2.516329,0.57961 -1.711925,0.27658 -2.013973,0.92957 -3.423038,0.6537 -1.433583,-0.27622 -1.812537,-1.98825 -1.73729,-2.46662 0.100471,-0.47731 -2.011645,0.50341 -3.044225,0.63041 -1.056817,0.12559 -2.189692,0.6029 -3.24665,0.0243 -1.029934,-0.57961 -2.843036,-0.57961 -2.843036,-2.5661 0,-3.07093 3.096331,-3.82729 3.322602,-4.00227"
         style="fill:#ed1c24;fill-opacity:1;fill-rule:nonzero;stroke:none;stroke-width:0.03527778"
         id="path3758" />
      <path
         d="m 85.656069,123.01063 c -0.662834,0.15311 -1.635336,0.30198 -2.074933,0.21943 -1.281571,-0.24095 -2.259295,-1.12289 -2.362376,-2.33609 -0.02755,-0.32385 0.101317,-0.60749 0.296968,-0.85126 -0.485316,0.31574 -1.00457,0.79587 -0.951795,1.4217 0.101989,1.21214 1.080665,2.09409 2.362236,2.33468 0.08132,0.0152 0.145803,0.0321 0.201189,0.049 0.238407,-0.10407 0.387244,-0.16863 0.387244,-0.16863 0,0 0.852029,-0.2667 2.141467,-0.66887"
         style="fill:#231f20;fill-opacity:1;fill-rule:nonzero;stroke:none;stroke-width:0.03527778"
         id="path3768" />
    </g>
    <path
       id="path3760"
       style="fill:#00a650;fill-opacity:1;fill-rule:nonzero;stroke:none;stroke-width:0.03527778"
       d="m 126.00845,88.116322 c 0,-0.0014 -0.19015,-0.788812 -0.19015,-0.788812 -0.1658,-0.645583 -0.36971,-1.4478 -0.38664,-1.789994 -0.16263,-1.432631 -0.9204,-2.643011 -2.25496,-3.598334 -1.64923,-0.964847 -3.43464,-1.857728 -5.3661,-1.882422 -2.04576,-0.07514 -3.94194,0.334433 -5.63703,1.219553 -0.91723,0.4953 -1.65947,1.286933 -2.37914,2.053872 -0.50482,0.536928 -1.02588,1.0922 -1.61219,1.555398 -0.70732,0.488244 -1.36384,1.060097 -1.99884,1.612194 l -1.12184,0.954264 c -0.0254,0.0064 -0.15451,0.06279 -0.19332,0.04445 l -0.0254,-0.04445 c -0.2293,-0.861836 -0.39723,-1.74872 -0.56056,-2.606322 -0.29704,-1.561748 -0.6029,-3.176764 -1.30528,-4.728987 -0.82938,-1.774825 -1.95509,-3.3274 -3.543652,-4.888795 -0.711906,-0.734836 -2.525889,-1.401938 -2.602089,-1.431219 l -0.03175,-0.01058 -0.0314,0.0088 c -0.104422,0.03104 -2.534355,0.757767 -2.699102,2.043642 -0.0829,0.650169 0.427213,1.311275 1.518002,1.964972 -0.0018,0 0.02469,0.02117 0.04833,0.03986 -0.301625,0.200731 -2.794459,0.118181 -4.307558,0.06738 l -2.109082,-0.04304 c -0.0193,0.0032 -0.659801,0.116416 -0.659801,0.116416 -1.047573,0.170745 -2.23587,0.360539 -2.257248,1.643239 -0.02505,0.280459 -0.03746,0.56762 -0.03746,0.8636 0,1.412523 0.28896,2.968273 0.824336,4.38397 0.09303,0.249767 0.257704,0.474134 0.416595,0.688622 0.156386,0.214842 0.305929,0.417337 0.388867,0.642762 0.536046,2.345266 1.930365,3.873147 3.407622,5.493103 0,0 0.01679,0.01976 0.02438,0.02752 -0.08707,0.0081 -0.177059,0.01693 -0.177059,0.01693 -2.784617,0.260703 -5.667199,0.53093 -8.399146,1.351492 -0.552873,0.04127 -1.158946,0.404636 -1.830035,1.109133 -0.434763,0.619478 -0.631155,1.141236 -0.631155,1.656644 -0.02233,0.150284 -0.03126,0.301978 -0.03126,0.455789 0,0.863248 0.332776,1.750131 1.030746,2.74567 0.91874,1.446388 1.938232,2.613728 3.11464,3.569408 1.491721,1.1243 3.124024,1.90641 5.293749,2.53577 0.957721,0.29598 1.740182,-0.2533 2.498795,-0.78564 0.361316,-0.25329 0.737941,-0.49212 1.127619,-0.65793 -0.563985,1.01247 -1.000548,2.25778 -1.000548,3.46498 0,0.91617 0.24638,1.80129 0.875312,2.5266 0.706261,0.76094 1.718028,1.14159 2.610203,1.43863 0.529167,0.0984 1.032228,0.0875 1.56457,0.0737 l 1.002594,0.006 c 1.115131,-0.0706 2.269415,-0.66746 2.954515,-1.52153 1.98261,-2.939 2.98097,-6.0699 2.98097,-9.32815 0,-0.37571 -0.0138,-0.754599 -0.0406,-1.133835 0.0141,-0.03069 0.11113,-0.246944 0.11113,-0.246944 0,0 0.0374,-0.08114 0.0744,-0.159456 0.12665,0.115006 0.90558,0.815975 0.90558,0.815975 0.9712,0.76094 1.01565,0.86078 1.56351,2.0694 l 1.1042,2.32868 c 0.2794,0.5461 0.40957,1.33915 0.40957,2.30223 0,4.37021 -2.69204,12.23187 -6.48405,16.43204 -0.84208,0.93415 -1.25765,1.6044 -1.25765,2.0309 0,0.10873 0.0268,0.20105 0.0797,0.27905 0.44486,0.63818 2.53859,-0.16714 2.77566,-0.26236 l 0.0296,-0.0106 0.0169,-0.0275 c 0.054,-0.0844 5.33823,-8.47231 7.03333,-15.15251 0.2794,-1.09961 0.4512,-2.33927 0.4512,-3.61562 0,-2.62149 -0.72108,-5.40279 -2.71533,-7.451729 -0.0215,-0.01693 -0.41099,-0.342194 -0.41099,-0.342194 -0.16263,-0.153458 -0.3496,-0.322086 -0.56621,-0.452261 0.0462,-0.09243 0.13194,-0.275167 0.17816,-0.371475 0.98777,0.258939 1.899,0.661105 2.77777,1.0541 1.05833,0.47378 2.05564,0.920044 3.18911,1.136297 0.4004,0.09843 0.68298,0.262467 0.95568,0.421922 0.41416,0.24095 0.80362,0.46637 1.53423,0.43533 l 1.12571,-0.11924 c 0.508,-0.0751 0.84208,-0.12559 1.19345,0.0349 0.12559,0.0571 0.29774,0.0279 0.52176,-0.0949 0.97225,-0.52917 2.74249,-2.699459 2.88995,-3.732039 0.006,-0.05821 0.006,-0.127353 0.006,-0.201084 0,-0.879122 -0.33126,-2.750255 -1.32539,-3.515783 -0.49706,-0.389467 -1.5247,-0.909461 -2.42993,-1.366661 -0.72073,-0.363714 -1.59526,-0.807156 -1.75472,-0.984956 2.66136,-1.444978 5.0606,-0.333022 5.08494,-0.321733 2.4959,1.607255 3.30729,2.129014 3.5941,2.272947 0.0123,0.0092 0.005,0.02928 0.0187,0.03669 0,0 0.012,-0.01658 0.0152,-0.01976 0.11042,0.05221 0.13194,0.03845 0.15169,0.01235 l 0.0568,-0.08749 -0.11501,-0.07514 c -0.0907,-0.05821 0.0938,-0.444853 0.25471,-0.785636 0.37888,-0.797278 0.94932,-2.001309 0.69497,-3.400425" />
    <path
       id="path3764"
       style="fill:#fddd04;fill-opacity:1;fill-rule:nonzero;stroke:none;stroke-width:0.03527778"
       d="m 141.83265,104.53284 c -0.68262,-2.04823 -2.46344,-3.49603 -4.53884,-3.68935 -1.78999,-0.23001 -3.09104,-0.11501 -4.73851,0.0307 l -1.11689,0.0949 c -0.2727,0 -1.48484,0.48648 -3.169,1.17228 -0.399,0.16368 -0.7807,0.31891 -1.10455,0.44767 0.9204,-0.75918 2.38407,-2.28529 3.6262,-3.720041 1.43298,-1.607256 3.06211,-3.619853 3.34116,-4.435828 0.20708,-0.589139 0.73307,-4.131028 0.76059,-4.503914 0.003,-0.142522 0.006,-0.277636 0.006,-0.4064 0,-0.923573 -0.0935,-1.538464 -0.1778,-2.089503 l -0.12877,-1.165578 c -0.0769,-2.593975 -0.55245,-4.924073 -0.55668,-4.948414 l -0.0448,-0.222603 -0.13512,0.18415 c -0.009,0.01235 -0.85583,1.182511 -1.07526,1.426633 -0.22225,0.222603 -3.689,2.626078 -5.63845,3.779309 -3.08222,1.840795 -4.47499,4.224867 -4.93219,5.008739 l -0.109,0.18415 c -0.28646,0.469195 -0.6149,1.198034 -0.93063,1.901825 -0.29634,0.658284 -0.57538,1.280937 -0.77929,1.59385 -0.28857,0.425098 -0.63041,1.371248 -0.88053,2.064809 -0.11077,0.305153 -0.21661,0.595489 -0.25471,0.654755 -0.20249,0.216606 -0.28398,0.660048 -0.36195,1.087614 -0.0444,0.245534 -0.0952,0.472723 -0.1658,0.64135 -0.0321,-0.06138 -0.0674,-0.138288 -0.0952,-0.22225 -0.009,-0.03245 -0.27305,-0.921808 -1.94487,-4.017786 -1.54622,-2.883958 -1.78258,-2.86385 -4.67395,-2.609145 l -1.08479,0.09066 c -3.19335,0.233187 -5.56013,1.880659 -6.83049,2.765426 l -0.58596,0.394758 c -0.65652,0.404636 -1.94522,2.220736 -3.43359,4.323644 l -1.68451,2.35339 0.224719,-0.0229 c 0.394406,-0.0462 0.762353,0.008 1.154995,0.0646 0.408516,0.0582 0.832556,0.10866 1.283406,0.0455 -0.0254,0.12136 -0.0536,0.24412 -0.0536,0.36724 0,0.61313 0.32032,1.22203 0.91263,1.69016 0.73837,0.73766 1.45098,1.17475 2.37385,1.45098 0.11571,0.005 0.18344,0.15981 0.24588,0.3115 0.0709,0.16439 0.14288,0.33584 0.28011,0.42933 l 0.0515,0.037 0.0674,-0.0324 c 0.11501,-0.0646 0.16475,-0.33267 0.24236,-2.92347 0.0138,-0.51541 0.03,-1.04952 0.0437,-1.11513 0.55668,-1.76107 1.9311,-2.88255 3.76272,-3.067764 0.67804,-0.07373 2.62608,0.171454 2.91148,1.604084 0.008,0.0265 0.38629,0.87277 0.61066,1.10278 0.003,0.0113 0.635,1.82563 0.635,1.82563 0.38946,1.15535 0.69638,2.06763 1.37901,3.48686 0.0935,0.16862 0.10265,0.34642 0.11324,0.53234 l 0.0293,0.29739 c 0.0307,0.15028 0.0459,0.30974 0.0459,0.47378 0,0.57397 -0.17921,1.22449 -0.51365,1.85173 -0.27446,0.47696 -0.85901,1.19168 -1.2901,1.28235 -1.11655,0.21166 -1.40053,0.0275 -2.08598,-0.42016 l -0.63535,-0.39723 c -0.46285,-0.27164 -0.90311,-2.25813 -1.03505,-3.00073 0.15452,-1.51553 0.37253,-4.13385 0.11642,-4.34093 -0.15487,-0.13793 -0.44944,0.0921 -2.23803,1.75331 -1.08444,1.00753 -2.43346,2.26095 -3.54753,3.10303 -1.58997,1.18745 -2.37984,2.67053 -2.95769,3.75497 -0.25082,0.47096 -0.46814,0.87771 -0.679803,1.11407 -0.300919,0.32068 -0.185914,0.75283 -0.07585,1.16875 l 0.100189,0.42475 c 0.195084,0.99413 0.801864,1.74272 1.387834,2.46662 l 0.11888,0.14711 c 0.39582,0.54645 1.57374,1.97591 1.58503,1.99002 0.0286,0.0258 2.00555,1.89265 3.61492,0.51541 2.2673,-0.73343 3.34398,-1.42346 3.38666,-1.45274 0.80716,-0.39899 1.6891,-0.80681 2.12337,-0.96944 -0.73025,0.70732 -2.19075,2.62114 -2.6998,4.17548 -0.508,1.59667 -1.56175,4.14906 -1.83163,4.69202 l -0.27622,0.53865 c -0.53234,1.04733 -1.77624,3.50051 -2.09762,3.84063 -0.40569,0.40541 -0.56303,0.68445 -0.2861,1.08341 0.0582,0.0857 0.12453,0.13021 0.20108,0.13794 0.13617,0.0109 0.25118,-0.10294 0.39582,-0.24557 0.13617,-0.13504 0.30692,-0.30332 0.53516,-0.41233 0.32667,-0.17046 2.11102,-1.82425 3.99733,-3.57434 1.50671,-1.39594 3.06352,-2.83958 3.56976,-3.23039 1.04175,-0.81181 1.82985,-1.60165 2.82716,-2.60001 l 0.27904,-0.27763 c 0,0 2.6095,-2.65395 3.01273,-3.06353 0.32208,0.2025 1.9819,1.21779 3.2766,1.62913 0.93592,0.18415 2.04011,0.32526 3.20251,0 2.07116,-0.61207 5.21265,-2.90689 7.48277,-4.72299 l 0.13194,-0.10583 -0.1531,-0.066 c -0.42051,-0.18097 -0.90206,-0.0229 -1.51236,0.17639 -0.75812,0.24553 -1.70321,0.55386 -2.93935,0.34502 -1.79034,-0.26212 -2.43593,-0.51859 -2.90688,-0.70556 l -0.32527,-0.12135 c -0.001,0 -0.19297,-0.0614 -0.19297,-0.0614 -1.2072,-0.37394 -2.45603,-0.76553 -3.17676,-1.81116 -0.006,-0.0187 -0.01,-0.037 -0.01,-0.0582 0,-0.0833 0.0353,-0.20285 0.0737,-0.33478 l 0.0765,-0.31433 c 0.16439,-0.62124 0.63817,-1.04316 1.09537,-1.45133 l 0.41134,-0.38206 c 0.84632,-1.02764 1.6443,-1.69051 2.51249,-2.09338 0.72249,-0.37006 1.85314,-0.83291 3.163,-0.94827 l 0.78846,-0.007 c 0.85866,-0.0123 1.66864,-0.0247 2.50931,0.10865 0.629,0.0829 0.79622,0.74895 0.95744,1.39312 l 0.0427,0.16828 c 0.0219,0.42509 -0.0688,0.96061 -0.24976,1.44991 -0.15664,0.13476 -2.01436,0.32632 -3.12173,0.44168 -1.54341,0.15805 -1.54446,0.16404 -1.56775,0.26988 l -0.009,0.0399 0.0293,0.043 c 0.43392,0.66569 1.87008,0.96026 2.68887,1.07527 2.29482,0.32208 5.42114,0.10759 6.4703,-0.80363 1.37442,-1.26083 2.39289,-2.62185 2.94675,-3.9363 0.63677,-1.69192 0.77753,-2.9972 0.42792,-3.99873" />
    <g
       id="g3931">
      <path
         d="m 59.639797,150.75841 3.975103,-0.24875 c 0.08597,0.64523 0.261127,1.13732 0.525569,1.47564 0.430212,0.5468 1.045245,0.82059 1.84464,0.82059 0.596159,0 1.056005,-0.13973 1.378726,-0.41987 0.322862,-0.27976 0.484258,-0.60385 0.484258,-0.97247 0,-0.35073 -0.153952,-0.66396 -0.461257,-0.94093 -0.307411,-0.277 -1.020692,-0.53799 -2.139668,-0.78384 -1.832222,-0.41204 -3.13877,-0.95924 -3.919686,-1.64151 -0.786998,-0.68269 -1.18043,-1.55264 -1.18043,-2.61017 0,-0.69507 0.201331,-1.35113 0.604132,-1.9692 0.402527,-0.61779 1.008317,-1.10352 1.816954,-1.45701 0.808355,-0.35387 1.916713,-0.53054 3.324649,-0.53054 1.727764,0 3.044895,0.32138 3.951781,0.96407 0.907027,0.64244 1.44653,1.66441 1.618792,3.06642 l -3.938165,0.23029 c -0.104563,-0.60854 -0.324238,-1.05117 -0.659377,-1.32789 -0.335138,-0.27658 -0.797877,-0.4148 -1.387969,-0.4148 -0.485739,0 -0.851605,0.10294 -1.097597,0.30868 -0.245992,0.20645 -0.368759,0.45681 -0.368759,0.75174 0,0.21523 0.101424,0.40887 0.304271,0.58109 0.19678,0.17847 0.664069,0.34424 1.401869,0.49777 1.826048,0.39398 3.134219,0.79195 3.924229,1.19447 0.790046,0.4028 1.364968,0.90234 1.724625,1.49864 0.359657,0.59683 0.539503,1.26365 0.539503,2.00131 0,0.86705 -0.239783,1.66645 -0.719349,2.39821 -0.479531,0.7316 -1.149668,1.28613 -2.010551,1.66466 -0.860849,0.37786 -1.945923,0.56691 -3.25561,0.56691 -2.299547,0 -3.891845,-0.44273 -4.777243,-1.32814 -0.885391,-0.88512 -1.38672,-2.01055 -1.50344,-3.37537"
         style="fill:#ed1c24;fill-opacity:1;fill-rule:nonzero;stroke:none;stroke-width:0.03527778"
         id="path3770" />
      <path
         d="m 81.064172,151.39478 3.569089,0.4057 c -0.19678,0.74429 -0.519501,1.38811 -0.968481,1.93258 -0.448804,0.54392 -1.022068,0.96697 -1.719792,1.26778 -0.697971,0.30124 -1.584995,0.45201 -2.660721,0.45201 -1.039283,0 -1.904718,-0.097 -2.596197,-0.29008 -0.691939,-0.19336 -1.286687,-0.50684 -1.784562,-0.94012 -0.498158,-0.43283 -0.888718,-0.94118 -1.171328,-1.52478 -0.282928,-0.58346 -0.424321,-1.35738 -0.424321,-2.32226 0,-1.00722 0.171979,-1.84577 0.51636,-2.51563 0.25206,-0.49113 0.596407,-0.93168 1.032969,-1.32221 0.436563,-0.38985 0.885543,-0.6798 1.346624,-0.87065 0.731484,-0.30096 1.669344,-0.45159 2.812873,-0.45159 1.598507,0 2.81739,0.2861 3.656613,0.85795 0.839646,0.57189 1.428044,1.40797 1.766358,2.50818 l -3.532329,0.47061 c -0.110525,-0.41798 -0.312102,-0.73297 -0.604273,-0.94506 -0.292135,-0.21237 -0.683754,-0.31845 -1.175738,-0.31845 -0.620924,0 -1.123632,0.22253 -1.507984,0.66777 -0.384175,0.44443 -0.576297,1.11827 -0.576297,2.02036 0,0.80437 0.190464,1.41496 0.571888,1.83222 0.381035,0.41702 0.866775,0.6259 1.457148,0.6259 0.491667,0 0.905087,-0.12566 1.240367,-0.37783 0.335139,-0.2522 0.585682,-0.63955 0.751734,-1.1624"
         style="fill:#ed1c24;fill-opacity:1;fill-rule:nonzero;stroke:none;stroke-width:0.03527778"
         id="path3772" />
      <path
         d="m 89.659674,150.35271 c 0,0.87313 0.176389,1.5186 0.530119,1.93672 0.353484,0.41835 0.797878,0.62727 1.332583,0.62727 0.540879,0 0.985273,-0.20602 1.332971,-0.61807 0.347239,-0.41172 0.520806,-1.07279 0.520806,-1.983 0,-0.84843 -0.175331,-1.47986 -0.525639,-1.89519 -0.350414,-0.41522 -0.783837,-0.62219 -1.300163,-0.62219 -0.547511,0 -0.99949,0.21057 -1.356007,0.63182 -0.356623,0.42087 -0.53467,1.06179 -0.53467,1.92264 z m -3.763151,0.009 c 0,-1.49394 0.504084,-2.72521 1.512817,-3.69355 1.008027,-0.96834 2.370208,-1.45273 4.085449,-1.45273 1.961444,0 3.443111,0.56899 4.445353,1.70642 0.805392,0.91613 1.208264,2.04431 1.208264,3.38486 0,1.50594 -0.499533,2.74038 -1.498953,3.7028 -0.999067,0.96202 -2.380897,1.44324 -4.14528,1.44324 -1.57413,0 -2.847023,-0.39937 -3.818255,-1.19919 -1.192989,-0.98954 -1.789395,-2.28699 -1.789395,-3.89185"
         style="fill:#ed1c24;fill-opacity:1;fill-rule:nonzero;stroke:none;stroke-width:0.03527778"
         id="path3774" />
      <path
         d="m 109.2762,155.23152 h -3.5052 v -1.5864 c -0.52211,0.65154 -1.04987,1.11622 -1.5815,1.3928 -0.53164,0.27658 -1.18498,0.41493 -1.95968,0.41493 -1.03294,0 -1.84327,-0.30868 -2.430289,-0.92688 -0.587022,-0.61804 -0.880533,-1.56902 -0.880533,-2.85433 v -6.23454 h 3.771902 v 5.38622 c 0,0.61489 0.11395,1.05117 0.34113,1.3094 0.22755,0.25827 0.54752,0.3871 0.95921,0.3871 0.44873,0 0.81632,-0.17183 1.10243,-0.5165 0.28539,-0.34396 0.42862,-0.96199 0.42862,-1.85346 v -4.71276 h 3.75391 v 9.79442"
         style="fill:#ed1c24;fill-opacity:1;fill-rule:nonzero;stroke:none;stroke-width:0.03527778"
         id="path3776" />
      <path
         d="m 116.08234,141.71103 v 3.72607 h 2.06552 v 2.74811 h -2.06552 v 3.47031 c 0,0.41726 0.0399,0.69356 0.11995,0.82832 0.12241,0.20878 0.33761,0.31284 0.64558,0.31284 0.27623,0 0.66358,-0.0797 1.1617,-0.23911 l 0.27693,2.59073 c -0.92887,0.20324 -1.79564,0.30455 -2.60103,0.30455 -0.93451,0 -1.62349,-0.11962 -2.06587,-0.35926 -0.44273,-0.2395 -0.77011,-0.60318 -0.98248,-1.09143 -0.21132,-0.48821 -0.3175,-1.27882 -0.3175,-2.37172 v -3.44523 h -1.3836 v -2.74811 h 1.3836 v -1.79846 l 3.76272,-1.92761"
         style="fill:#ed1c24;fill-opacity:1;fill-rule:nonzero;stroke:none;stroke-width:0.03527778"
         id="path3778" />
      <path
         d="m 120.07508,145.4371 h 3.75391 v 9.79442 h -3.75391 z m 0,-3.72607 h 3.75391 v 2.55475 h -3.75391 v -2.55475"
         style="fill:#ed1c24;fill-opacity:1;fill-rule:nonzero;stroke:none;stroke-width:0.03527778"
         id="path3780" />
      <path
         d="m 126.22682,145.4371 h 3.49532 v 1.59551 c 0.52212,-0.65154 1.05128,-1.11717 1.58609,-1.39731 0.53552,-0.27976 1.18639,-0.41977 1.95545,-0.41977 1.03893,0 1.85208,0.30896 2.43911,0.92713 0.58772,0.61764 0.88124,1.57223 0.88124,2.86343 v 6.22543 h -3.77226 v -5.38621 c 0,-0.61447 -0.11359,-1.04951 -0.34113,-1.30485 -0.22755,-0.25506 -0.54716,-0.3828 -0.95921,-0.3828 -0.45543,0 -0.82409,0.17222 -1.10631,0.51646 -0.28328,0.34439 -0.42474,0.96242 -0.42474,1.85389 v 4.70351 h -3.75356 v -9.79442"
         style="fill:#ed1c24;fill-opacity:1;fill-rule:nonzero;stroke:none;stroke-width:0.03527778"
         id="path3782" />
      <path
         d="m 142.10782,150.1868 c 0,0.70707 0.15099,1.23088 0.45226,1.57233 0.30092,0.34121 0.6978,0.51195 1.18992,0.51195 0.46708,0 0.85901,-0.17681 1.17546,-0.53054 0.31679,-0.35345 0.47519,-0.88664 0.47519,-1.59988 0,-0.713 -0.16581,-1.25872 -0.49812,-1.63686 -0.33197,-0.37853 -0.73802,-0.56733 -1.21744,-0.56733 -0.47943,0 -0.86184,0.17363 -1.14794,0.52105 -0.28575,0.34752 -0.42933,0.92396 -0.42933,1.72928 z m 3.53272,-4.7497 h 3.51402 v 9.25051 l 0.009,0.43325 c 0,0.61489 -0.13088,1.20042 -0.39194,1.75715 -0.26106,0.55631 -0.60854,1.00651 -1.04175,1.35075 -0.43427,0.34437 -0.9839,0.59338 -1.651,0.74717 -0.66746,0.15379 -1.43087,0.23041 -2.29235,0.23041 -1.96709,0 -3.31823,-0.29531 -4.05271,-0.88511 -0.73519,-0.59022 -1.10244,-1.38039 -1.10244,-2.37037 0,-0.12306 0.006,-0.28884 0.0187,-0.49801 l 3.64279,0.41519 c 0.0924,0.3379 0.23353,0.57175 0.42439,0.70087 0.27622,0.19058 0.62371,0.28581 1.04175,0.28581 0.54081,0 0.94544,-0.1447 1.21285,-0.43353 0.26776,-0.28898 0.40146,-0.79308 0.40146,-1.51239 v -1.48484 c -0.36936,0.43642 -0.73801,0.75321 -1.10702,0.94961 -0.57749,0.30769 -1.20191,0.4615 -1.87219,0.4615 -1.30916,0 -2.36678,-0.57189 -3.17218,-1.71552 -0.57185,-0.81139 -0.85795,-1.88419 -0.85795,-3.21882 0,-1.52467 0.36865,-2.68675 1.10666,-3.48618 0.73801,-0.79897 1.70321,-1.19902 2.89596,-1.19902 0.762,0 1.391,0.12911 1.88559,0.38763 0.49566,0.25798 0.9578,0.68544 1.38854,1.28199 v -1.44805"
         style="fill:#ed1c24;fill-opacity:1;fill-rule:nonzero;stroke:none;stroke-width:0.03527778"
         id="path3784" />
    </g>
  </g>
</svg>
